…
``` r
table(annotations$complete) 
#> 
#> FALSE  TRUE 
#>   482 13860
```

-   Get raw frequencies of the different categories

``` r
annot_tidy <- make_annotations_tidy(annotations) 
#> Warning: attributes are not identical across measure variables;
#> they will be dropped
annot_tidy %>% group_by(feature, value) %>% tally()
#> # A tibble: 31 x 3
#> # Groups:   feature [6]
#>    feature value             n
#>    <chr>   <fct>         <int>
#>  1 F1      ""              151
#>  2 F1      None           1326
#>  3 F1      intralaminar   3895
#>  4 F1      translaminar   8970
#>  5 F2      ""              175
#>  6 F2      None           1326
#>  7 F2      intracolumnar  7660
#>  8 F2      transcolumnar  5181
#>  9 F3      ""              254
#> 10 F3      None           1326
#> # … with 21 more rows
…
-   Restrict analysis to unrotated, monkey cells

``` r
monkey <- metadata %>% filter(species == 'Monkey')
counts <- get_all_counts_meta(folder)
#> Warning: attributes are not identical across measure variables;
#> they will be dropped
counts %>% filter(species == 'Monkey') 
#> # A tibble: 68 x 26
#>    neuron intralaminar translaminar intracolumnar transcolumnar centered
#>    <fct>         <int>        <int>         <int>         <int>    <int>
#>  1 1                44            2            44             0       44
#>  2 6                45            1            45             0       44
#>  3 9                 4           43             8            38       30
#>  4 12                9           35             1            44       35
#>  5 14                1           43            45             0       27
#>  6 22                2           39            41             1        4
#>  7 27               18           27            44             1       39
#>  8 28                1           40            39             3        1
#>  9 33               34            9            41             1       31
#> 10 37               37            0            36             0       30
#> # … with 58 more rows, and 20 more variables: displaced <int>,
#> #   ascending <int>, both <int>, descending <int>, arcade <int>,
#> #   `Cajal-Retzius` <int>, chandelier <int>, `common basket` <int>,
#> #   `common type` <int>, `horse-tail` <int>, `large basket` <int>,
#> #   Martinotti <int>, neurogliaform <int>, other <int>,
#> #   characterized <int>, uncharacterized <int>, species <fct>, area <fct>,
#> #   layer <fct>, rotated <lgl>
```
…
-   Words used in alternative types and definitions:
    -   The most common word is \`bitufted’

``` r
library(tidytext)
library(wordcloud)
#> Loading required package: RColorBrewer
alt <- alternative 
alt$type <- as.character(alternative$type ) 
alt <- alt %>% unnest_tokens(type, type)
alt %>%  count(type, sort = TRUE)      
#> # A tibble: 271 x 2
#>    type           n
#>    <chr>      <int>
#>  1 bitufted      44
#>  2 arbor         38
#>  3 bipolar       38
#>  4 with          36
#>  5 be            35
#>  6 could         30
#>  7 martinotti    29
#>  8 cell          28
#>  9 a             26
#> 10 axonal        25
#> # … with 261 more rows
…
``` r
alt <- alternative 
alt$definition <- as.character(alternative$definition )   
alt <- alt %>% unnest_tokens(definition, definition)
alt <- alt %>% anti_join(get_stopwords(), by = c("definition" = "word"))
alt %>%  count(definition, sort = TRUE)      
#> # A tibble: 427 x 2
#>    definition     n
#>    <chr>      <int>
#>  1 axonal        37
#>  2 cells         30
#>  3 cell          25
#>  4 see           22
#>  5 layer         20
#>  6 soma          18
#>  7 arbor         15
#>  8 domain        15
#>  9 layers        14
#> 10 dendritic     13
#> # … with 417 more rows
…
